{
  "users": [
    {
      "id": 1,
      "email": "khoir@gmail.com",
      "password": "3005"
    }
  ],
  "admins": [
    {
      "id": 2,
      "username": "ADMIN",
      "password": "administrator"
    }
  ],
  "akuns": [
    {
      "email": "aqku@gmail.com",
      "password": "123",
      "id": 1
    }
  ],
  "cart": [
    {
      "link": "https://media.kompas.tv/library/image/content_article/article_img/20210929235704.jpg",
      "namaMakanan": "Coffe",
      "deskripsi": "cocok untuk diminum",
      "harga": 6000,
      "id": 8
    },
    {
      "link": "https://asset-a.grid.id/crop/0x0:0x0/700x465/photo/2022/03/03/resep-pisang-molen-mini-yang-sed-20220303010720.jpg",
      "namaMakanan": "Molen",
      "deskripsi": "terbuat dari pisang",
      "harga": 8500,
      "id": 5
    },
    {
      "link": "http://irdresearch.com/wp-content/uploads/2021/12/cincau-gm.jpg",
      "namaMakanan": "Capcin",
      "deskripsi": "cocok pas lagi haus",
      "harga": 5000,
      "id": 9
    }
  ],
  "daftarMenu": [
    {
      "link": "https://i.ytimg.com/vi/NPbgGTJQMIc/maxresdefault.jpg",
      "namaMakanan": "Nasi Gandul",
      "deskripsi": "masakan khas yang berasal dari Pati.",
      "harga": 12000,
      "id": 3
    },
    {
      "link": "https://images.bisnis.com/posts/2022/08/19/1568616/fotojet-18_11zon_2021_10_05_01_00_00.jpg",
      "namaMakanan": "Mie Gacoan",
      "deskripsi": "restoran makanan dari Indonesia.",
      "harga": 8500,
      "id": 4
    },
    {
      "link": "https://asset-a.grid.id/crop/0x0:0x0/700x465/photo/2022/03/03/resep-pisang-molen-mini-yang-sed-20220303010720.jpg",
      "namaMakanan": "Molen",
      "deskripsi": "terbuat dari pisang",
      "harga": 8500,
      "id": 5
    },
    {
      "link": "https://assets.promediateknologi.com/crop/0x0:0x0/x/photo/2022/07/28/2724015470.jpg",
      "namaMakanan": "Pukis",
      "deskripsi": "makanan ringan tradisional Indonesia ",
      "harga": 8000,
      "id": 6
    },
    {
      "link": "https://i0.wp.com/www.eramuslim.com/media/2012/10/mpek.jpg?resize=852%2C480&ssl=1",
      "namaMakanan": "Mpek-Mpek",
      "deskripsi": " Pempek makanan khas Palembang. ",
      "harga": 15000,
      "id": 7
    },
    {
      "link": "https://media.kompas.tv/library/image/content_article/article_img/20210929235704.jpg",
      "namaMakanan": "Coffe",
      "deskripsi": "cocok untuk diminum",
      "harga": 6000,
      "id": 8
    },
    {
      "link": "http://irdresearch.com/wp-content/uploads/2021/12/cincau-gm.jpg",
      "namaMakanan": "Capcin",
      "deskripsi": "cocok pas lagi haus",
      "harga": 5000,
      "id": 9
    },
    {
      "link": "https://i.gojekapi.com/darkroom/gofood-indonesia/v2/images/uploads/1e10dbf5-a8b4-4e0d-a9ff-8d29ff620654_menu-item-image_1637938275288.jpg",
      "namaMakanan": "Es Gendruwo",
      "deskripsi": "es yg kental manis",
      "harga": 8000,
      "id": 10
    },
    {
      "link": "https://t-2.tstatic.net/medan/foto/bank/images/es-doger-buah-naga.jpg",
      "namaMakanan": "Es Doger",
      "deskripsi": "es yg lembut perpaduan dengan susu",
      "harga": 4000,
      "id": 11
    },
    {
      "link": "https://doktersehat.com/wp-content/uploads/2019/05/kreasi-minuman-sirup-doktersehat.jpg",
      "namaMakanan": "es Sirup",
      "deskripsi": "manis dan segar",
      "harga": 3000,
      "id": 12
    },
    {
      "link": "https://cdn0-production-images-kly.akamaized.net/OKBPA4Eub9VosWO0Fl2NO7E5vWw=/1360x766/smart/filters:quality(75):strip_icc():format(webp)/kly-media-production/medias/4116045/original/096016200_1659931714-shutterstock_2137989959.jpg",
      "namaMakanan": "es Dawet",
      "deskripsi": "lumer dan lembut + segar",
      "harga": 5000,
      "id": 13
    },
    {
      "link": "https://akcdn.detik.net.id/api/wm/2021/04/19/ayam-geprek_169.jpeg",
      "namaMakanan": "Ayam Geprek",
      "deskripsi": "super puedasss",
      "harga": 9500,
      "id": 15
    },
    {
      "link": "https://www.tastingtable.com/img/gallery/15-ingredients-that-will-seriously-elevate-your-steak/l-intro-1663169111.jpg",
      "namaMakanan": "Steak",
      "deskripsi": "lezatttt pokokkkk eeeeee",
      "harga": 22000,
      "id": 16
    },
    {
      "link": "https://img.kurio.network/4q0Kkby9asTVzvCp3rcIy7zcc-Q=/1200x900/filters:quality(80)/https://kurio-img.kurioapps.com/21/12/02/63c4fd4a-4850-492e-971a-00966545777f.jpe",
      "namaMakanan": "bakso mercon",
      "deskripsi": "pedes e poll",
      "harga": "14000",
      "id": 17
    }
  ]
}